module 0xacab.org/leap/ooni-exporter

go 1.19

require (
	github.com/ooni/probe-engine v0.24.0
	github.com/pborman/getopt/v2 v2.1.0
	github.com/prometheus/client_golang v1.14.0
)

require (
	filippo.io/edwards25519 v1.0.0 // indirect
	git.torproject.org/pluggable-transports/goptlib.git v1.3.0 // indirect
	git.torproject.org/pluggable-transports/snowflake.git/v2 v2.5.1 // indirect
	github.com/AndreasBriese/bbloom v0.0.0-20190825152654-46b345b51c96 // indirect
	github.com/Psiphon-Labs/bolt v0.0.0-20200624191537-23cedaef7ad7 // indirect
	github.com/Psiphon-Labs/goptlib v0.0.0-20200406165125-c0e32a7a3464 // indirect
	github.com/Psiphon-Labs/psiphon-tunnel-core v1.0.11-0.20230109152509-df9b786ba0f4 // indirect
	github.com/Psiphon-Labs/qtls-go1-18 v0.0.0-20221014170512-3bdc7291c091 // indirect
	github.com/Psiphon-Labs/qtls-go1-19 v0.0.0-20221014165721-ed28749db082 // indirect
	github.com/Psiphon-Labs/quic-go v0.0.0-20221014165902-1b7c3975fcf3 // indirect
	github.com/Psiphon-Labs/tls-tris v0.0.0-20210713133851-676a693d51ad // indirect
	github.com/andybalholm/brotli v1.0.5-0.20220518190645-786ec621f618 // indirect
	github.com/armon/go-proxyproto v0.0.0-20210323213023-7e956b284f0a // indirect
	github.com/armon/go-socks5 v0.0.0-20160902184237-e75332964ef5 // indirect
	github.com/beorn7/perks v1.0.1 // indirect
	github.com/bifurcation/mint v0.0.0-20180306135233-198357931e61 // indirect
	github.com/cespare/xxhash/v2 v2.2.0 // indirect
	github.com/cheekybits/genny v1.0.0 // indirect
	github.com/cognusion/go-cache-lru v0.0.0-20170419142635-f73e2280ecea // indirect
	github.com/cretz/bine v0.2.0 // indirect
	github.com/dchest/siphash v1.2.3 // indirect
	github.com/dgraph-io/badger v1.6.2 // indirect
	github.com/dgraph-io/ristretto v0.1.1 // indirect
	github.com/dsnet/compress v0.0.1 // indirect
	github.com/dustin/go-humanize v1.0.1 // indirect
	github.com/go-task/slim-sprig v0.0.0-20210107165309-348f09dbbbc0 // indirect
	github.com/golang/glog v1.0.0 // indirect
	github.com/golang/mock v1.6.0 // indirect
	github.com/golang/protobuf v1.5.3 // indirect
	github.com/google/pprof v0.0.0-20230111200839-76d1ae5aea2b // indirect
	github.com/google/uuid v1.3.0 // indirect
	github.com/grafov/m3u8 v0.11.1 // indirect
	github.com/hashicorp/golang-lru v0.5.4 // indirect
	github.com/juju/ratelimit v1.0.2 // indirect
	github.com/klauspost/compress v1.15.14 // indirect
	github.com/klauspost/cpuid/v2 v2.2.3 // indirect
	github.com/klauspost/reedsolomon v1.11.5 // indirect
	github.com/lucas-clemente/quic-go v0.31.1 // indirect
	github.com/marten-seemann/qpack v0.3.0 // indirect
	github.com/marten-seemann/qtls-go1-18 v0.1.4 // indirect
	github.com/marten-seemann/qtls-go1-19 v0.1.2 // indirect
	github.com/matttproud/golang_protobuf_extensions v1.0.4 // indirect
	github.com/miekg/dns v1.1.50 // indirect
	github.com/onsi/ginkgo/v2 v2.7.0 // indirect
	github.com/ooni/go-libtor v1.1.7 // indirect
	github.com/ooni/oocrypto v0.4.2 // indirect
	github.com/ooni/oohttp v0.5.2 // indirect
	github.com/ooni/probe-assets v0.15.0 // indirect
	github.com/oschwald/maxminddb-golang v1.10.0 // indirect
	github.com/pion/datachannel v1.5.5 // indirect
	github.com/pion/dtls/v2 v2.2.4 // indirect
	github.com/pion/ice/v2 v2.2.13 // indirect
	github.com/pion/interceptor v0.1.12 // indirect
	github.com/pion/logging v0.2.2 // indirect
	github.com/pion/mdns v0.0.5 // indirect
	github.com/pion/randutil v0.1.0 // indirect
	github.com/pion/rtcp v1.2.10 // indirect
	github.com/pion/rtp v1.7.13 // indirect
	github.com/pion/sctp v1.8.6 // indirect
	github.com/pion/sdp/v3 v3.0.6 // indirect
	github.com/pion/srtp/v2 v2.0.11 // indirect
	github.com/pion/stun v0.3.5 // indirect
	github.com/pion/transport v0.14.1 // indirect
	github.com/pion/transport/v2 v2.0.0 // indirect
	github.com/pion/turn/v2 v2.0.9 // indirect
	github.com/pion/udp v0.1.4 // indirect
	github.com/pion/webrtc/v3 v3.1.50 // indirect
	github.com/pkg/errors v0.9.1 // indirect
	github.com/prometheus/client_model v0.3.0 // indirect
	github.com/prometheus/common v0.39.0 // indirect
	github.com/prometheus/procfs v0.9.0 // indirect
	github.com/refraction-networking/gotapdance v1.3.4 // indirect
	github.com/refraction-networking/utls v1.2.0 // indirect
	github.com/sergeyfrolov/bsbuffer v0.0.0-20180903213811-94e85abb8507 // indirect
	github.com/sirupsen/logrus v1.9.0 // indirect
	github.com/stretchr/testify v1.8.2 // indirect
	github.com/syndtr/gocapability v0.0.0-20200815063812-42c35b437635 // indirect
	github.com/templexxx/cpu v0.1.0 // indirect
	github.com/templexxx/xorsimd v0.4.2 // indirect
	github.com/tjfoc/gmsm v1.4.1 // indirect
	github.com/wader/filtertransport v0.0.0-20200316221534-bdd9e61eee78 // indirect
	github.com/xtaci/kcp-go/v5 v5.6.1 // indirect
	github.com/xtaci/smux v1.5.17 // indirect
	github.com/zach-klippenstein/goregen v0.0.0-20160303162051-795b5e3961ea // indirect
	gitlab.com/yawning/bsaes.git v0.0.0-20190805113838-0a714cd429ec // indirect
	gitlab.com/yawning/edwards25519-extra.git v0.0.0-20220726154925-def713fd18e4 // indirect
	gitlab.com/yawning/obfs4.git v0.0.0-20220904064028-336a71d6e4cf // indirect
	gitlab.com/yawning/utls.git v0.0.12-1 // indirect
	golang.org/x/crypto v0.7.0 // indirect
	golang.org/x/exp v0.0.0-20230118134722-a68e582fa157 // indirect
	golang.org/x/mod v0.8.0 // indirect
	golang.org/x/net v0.8.0 // indirect
	golang.org/x/sys v0.6.0 // indirect
	golang.org/x/text v0.8.0 // indirect
	golang.org/x/tools v0.6.0 // indirect
	google.golang.org/protobuf v1.28.1 // indirect
)
